Veri Dönüştürme – R Programlama
…
names_to: Yeni oluşturulacak sütunun adı.

values_to: Sütun içerisindeki değerlerin yer alacağı sütunun adı.

Diğer argümanlar, isteğe bağlı olarak sütun adlarının belirtilmesi için kullanılır.

Çeşitli örnekler yapmak için billboard veri setini kullanalım. billboard veri seti, tidyr paketinde bulunan ve müzik endüstrisindeki popülerlik sıralamalarını içeren bir veri setidir. Veri seti, 1999-2000 yılları arasında Billboard Hot 100 listesindeki şarkıların haftalık sıralamalarını içerir. Her bir hafta için bir sütun bulunur ve bu sütunlar, o haftadaki şarkıların sıralamalarını içerir. Öncelikle veri setini inceleyelim.

library(tidyr)

Warning: package 'tidyr' was built under R version 4.3.3

billboard

# A tibble: 317 × 79
   artist     track date.entered   wk1   wk2   wk3   wk4   wk5   wk6   wk7   wk8
   <chr>      <chr> <date>       <dbl> <dbl> <dbl> <dbl> <dbl> <dbl> <dbl> <dbl>
 1 2 Pac      Baby… 2000-02-26      87    82    72    77    87    94    99    NA
 2 2Ge+her    The … 2000-09-02      91    87    92    NA    NA    NA    NA    NA
 3 3 Doors D… Kryp… 2000-04-08      81    70    68    67    66    57    54    53
 4 3 Doors D… Loser 2000-10-21      76    76    72    69    67    65    55    59
 5 504 Boyz   Wobb… 2000-04-15      57    34    25    17    17    31    36    49
 6 98^0       Give… 2000-08-19      51    39    34    26    26    19     2     2
 7 A*Teens    Danc… 2000-07-08      97    97    96    95   100    NA    NA    NA
 8 Aaliyah    I Do… 2000-01-29      84    62    51    41    38    35    35    38
 9 Aaliyah    Try … 2000-03-18      59    53    38    28    21    18    16    14
10 Adams, Yo… Open… 2000-08-26      76    76    74    69    68    67    61    58
# ℹ 307 more rows
# ℹ 68 more variables: wk9 <dbl>, wk10 <dbl>, wk11 <dbl>, wk12 <dbl>,
#   wk13 <dbl>, wk14 <dbl>, wk15 <dbl>, wk16 <dbl>, wk17 <dbl>, wk18 <dbl>,
#   wk19 <dbl>, wk20 <dbl>, wk21 <dbl>, wk22 <dbl>, wk23 <dbl>, wk24 <dbl>,
#   wk25 <dbl>, wk26 <dbl>, wk27 <dbl>, wk28 <dbl>, wk29 <dbl>, wk30 <dbl>,
#   wk31 <dbl>, wk32 <dbl>, wk33 <dbl>, wk34 <dbl>, wk35 <dbl>, wk36 <dbl>,
#   wk37 <dbl>, wk38 <dbl>, wk39 <dbl>, wk40 <dbl>, wk41 <dbl>, wk42 <dbl>, …
…
Bu değişkenler, şarkıların sanatçıları, adları ve haftalık sıralamaları gibi bilgileri içerir. Veri setindeki haftalık sıralama sütunları, her bir hafta için şarkıların sıralamasını içerir. Bu sıralama bilgileri, her bir hafta için bir sütunda bulunur ve bu sütunlar “wk1”, “wk2”, …, “wk76” gibi adlarla temsil edilir.

Dikkat edilirse tablonun 317 satır ve 79 sütundan oluştuğu görülmektedir. Ayrıca hafta değişkenleri yatay olarak herbiri ayrı kolonlarda hafta numaraları ile belirtilmektedir. Şimdi bu verii uzun formata dönüştürerek daha kullanışlı bir formata dönüştürelim.

billboard_long <- billboard |> 
  pivot_longer(
    cols = starts_with("wk"), 
    names_to = "week", 
    values_to = "rank",
    values_drop_na = TRUE
  )

billboard_long

# A tibble: 5,307 × 5
   artist  track                   date.entered week   rank
   <chr>   <chr>                   <date>       <chr> <dbl>
 1 2 Pac   Baby Don't Cry (Keep... 2000-02-26   wk1      87
 2 2 Pac   Baby Don't Cry (Keep... 2000-02-26   wk2      82
 3 2 Pac   Baby Don't Cry (Keep... 2000-02-26   wk3      72
 4 2 Pac   Baby Don't Cry (Keep... 2000-02-26   wk4      77
 5 2 Pac   Baby Don't Cry (Keep... 2000-02-26   wk5      87
 6 2 Pac   Baby Don't Cry (Keep... 2000-02-26   wk6      94
 7 2 Pac   Baby Don't Cry (Keep... 2000-02-26   wk7      99
 8 2Ge+her The Hardest Part Of ... 2000-09-02   wk1      91
 9 2Ge+her The Hardest Part Of ... 2000-09-02   wk2      87
10 2Ge+her The Hardest Part Of ... 2000-09-02   wk3      92
# ℹ 5,297 more rows
…
Bu şekilde üretilen tablonu satır sayısına baktığımızda 24092 satır olduğunu görürüz. Bu aslında başlangıçta yer alan 317 satırın 76 hafta verisi (wk ile başlayan 76 hafta olduğundan) ile tekrarlaması anlamına gelir. Doğal olarak 317 * 76 = 24092 satır sayısı ortaya çıkar ve wk ile başlamayan sütunlar da tekrar ederek satırlarda oluşur.

Eğer veri setini daha düzenli hale getirmek amacıyla week kolonundaki değerlerin başındak wk ifadesini kaldırmak istersek aşağıdaki şekilde bir düzenleme yapabiliriz.

billboard |> 
  pivot_longer(
    cols = starts_with("wk"), 
    names_to = "week", 
    names_transform = readr::parse_number,
    values_to = "rank",
    values_drop_na = TRUE,
  )

# A tibble: 5,307 × 5
   artist  track                   date.entered  week  rank
   <chr>   <chr>                   <date>       <dbl> <dbl>
 1 2 Pac   Baby Don't Cry (Keep... 2000-02-26       1    87
 2 2 Pac   Baby Don't Cry (Keep... 2000-02-26       2    82
 3 2 Pac   Baby Don't Cry (Keep... 2000-02-26       3    72
 4 2 Pac   Baby Don't Cry (Keep... 2000-02-26       4    77
 5 2 Pac   Baby Don't Cry (Keep... 2000-02-26       5    87
 6 2 Pac   Baby Don't Cry (Keep... 2000-02-26       6    94
 7 2 Pac   Baby Don't Cry (Keep... 2000-02-26       7    99
 8 2Ge+her The Hardest Part Of ... 2000-09-02       1    91
 9 2Ge+her The Hardest Part Of ... 2000-09-02       2    87
10 2Ge+her The Hardest Part Of ... 2000-09-02       3    92
# ℹ 5,297 more rows
…
TipAlternatif Yol

Bu amaçla aşağıdaki kod da benzer işi yapmaktadır.

billboard |> 
  pivot_longer(
    cols = starts_with("wk"), 
    names_to = "week", 
    names_prefix = "wk",   # Her bir değişken adının başından "wk" metni kaldırır
    names_transform = as.integer,   # Sütun adlarından sayısal değerleri alır
    values_to = "rank",
    values_drop_na = TRUE,
  )

# A tibble: 5,307 × 5
   artist  track                   date.entered  week  rank
   <chr>   <chr>                   <date>       <int> <dbl>
 1 2 Pac   Baby Don't Cry (Keep... 2000-02-26       1    87
 2 2 Pac   Baby Don't Cry (Keep... 2000-02-26       2    82
 3 2 Pac   Baby Don't Cry (Keep... 2000-02-26       3    72
 4 2 Pac   Baby Don't Cry (Keep... 2000-02-26       4    77
 5 2 Pac   Baby Don't Cry (Keep... 2000-02-26       5    87
 6 2 Pac   Baby Don't Cry (Keep... 2000-02-26       6    94
 7 2 Pac   Baby Don't Cry (Keep... 2000-02-26       7    99
 8 2Ge+her The Hardest Part Of ... 2000-09-02       1    91
 9 2Ge+her The Hardest Part Of ... 2000-09-02       2    87
10 2Ge+her The Hardest Part Of ... 2000-09-02       3    92
# ℹ 5,297 more rows
…
pivot_wider(data, names_from, values_from, values_fn = list, values_fill = list(), names_prefix = NULL, names_sep = "_", names_repair = "check_unique", id_cols = NULL, values_fn_args = list(), ...)

data: İşlem yapılacak olan veri seti.

names_from: Geniş formatlı hale dönüştürülecek olan sütunların adı.

values_from: Yeni sütunlara değerlerin alınacağı sütunun adı.

Diğer argümanlar, isteğe bağlı olarak sütun adlarının belirtilmesi ve eksik değerlerin doldurulması için kullanılır.

Bu fonksiyon ile bazı örnekler yapmak için tidyr paketindeki us_rent_income veri setini kullanabiliriz. Veri seti 2017 yılına ait American Community Survey ile edilmiştir. Bu araştırma Amerika Birleşik Devletleri’nde federal hükümet tarafından her yıl gerçekleştirilen bir nüfus sayımı ve sosyo-ekonomik anket programıdır. Bu anket, Amerika’nın demografik ve ekonomik özellikleri hakkında geniş kapsamlı veriler sağlar.

us_rent_income

# A tibble: 104 × 5
   GEOID NAME       variable estimate   moe
   <chr> <chr>      <chr>       <dbl> <dbl>
 1 01    Alabama    income      24476   136
 2 01    Alabama    rent          747     3
 3 02    Alaska     income      32940   508
 4 02    Alaska     rent         1200    13
 5 04    Arizona    income      27517   148
 6 04    Arizona    rent          972     4
 7 05    Arkansas   income      23789   165
 8 05    Arkansas   rent          709     5
 9 06    California income      29454   109
10 06    California rent         1358     3
# ℹ 94 more rows
…
NAME: Bu değişken, eyaletin veya coğrafi bölgenin adını içerir.

variable: Bu değişken, veri setinde ölçülen değişkenin adını belirtir. İki farklı değer alabilir: “income” (ortalama yıllık gelir) veya “rent” (ortalama aylık kira).

estimate: Bu değişken, belirli bir coğrafi alandaki tahmini değeri içerir. Örneğin, belirli bir eyalet için ortalama yıllık gelir veya ortalama aylık kira miktarı gibi.

moe: Bu değişken, tahmini değerin 90% güven aralığı içindeki marj hatasını (margin of error) içerir. Marj hatası, tahmini değerin gerçek değerden ne kadar sapabileceğini gösterir. Bu, tahminin güvenilirliğini değerlendirmeye yardımcı olur.

us_rent_income |> 
  pivot_wider(
    names_from = variable,
    values_from = c(estimate, moe)
  )

# A tibble: 52 × 6
   GEOID NAME                 estimate_income estimate_rent moe_income moe_rent
   <chr> <chr>                          <dbl>         <dbl>      <dbl>    <dbl>
 1 01    Alabama                        24476           747        136        3
 2 02    Alaska                         32940          1200        508       13
 3 04    Arizona                        27517           972        148        4
 4 05    Arkansas                       23789           709        165        5
 5 06    California                     29454          1358        109        3
 6 08    Colorado                       32401          1125        109        5
 7 09    Connecticut                    35326          1123        195        5
 8 10    Delaware                       31560          1076        247       10
 9 11    District of Columbia           43198          1424        681       17
10 12    Florida                        25952          1077         70        3
# ℹ 42 more rows
…
Sonuç olarak, bu kod us_rent_income veri setini income_estimate, income_moe, rent_estimate ve rent_moe olmak üzere dört yeni sütun içeren bir geniş formatlı veri setine dönüştürür.

Dikkat edilirse değişken isimlerinin arasına "_" ifadesi konmuştur. Bu ifadenin gelmesinin sebebi, pivot_wider() fonksiyonunda kullanılan names_sep parametresinin varsayılan değerinin "_" olmasından kaynaklıdır. Eğer names_sep parametresi belirtilmezse değişken isimlerinin arasında "_" kullanılır.

Bu nedenle, values_from = c(estimate, moe) ifadesindeki estimate ve moe sütunları, genişletilmiş sütunların adlarında alt çizgi ile ayrılır. Sonuç olarak, yeni oluşturulan sütunlar income_estimate, income_moe, rent_estimate ve rent_moe adlarına sahip olur. Eğer "_" yerine "." (nokta) koymak istersek kodu aşağıdaki şekilde güncellememiz gerekir.

us_rent_income |> 
  pivot_wider(
    names_from = variable,
    values_from = c(estimate, moe),
    names_sep = "."
  )

# A tibble: 52 × 6
   GEOID NAME                 estimate.income estimate.rent moe.income moe.rent
   <chr> <chr>                          <dbl>         <dbl>      <dbl>    <dbl>
 1 01    Alabama                        24476           747        136        3
 2 02    Alaska                         32940          1200        508       13
 3 04    Arizona                        27517           972        148        4
 4 05    Arkansas                       23789           709        165        5
 5 06    California                     29454          1358        109        3
 6 08    Colorado                       32401          1125        109        5
 7 09    Connecticut                    35326          1123        195        5
 8 10    Delaware                       31560          1076        247       10
 9 11    District of Columbia           43198          1424        681       17
10 12    Florida                        25952          1077         70        3
# ℹ 42 more rows

Başka dikkat edilecek bir husus ise, değişken isminin önce variable değişkeninden gelmesi ve sonrasında değer ile ilgli kısımdan gelerek birleştirilmesidir. Örneğin "estimate.income" isminin noktadan önceki kısmı variable değişkeninden, sonraki kısmı ise income değişken isminden gelmektedir. Arzu edilirse bu durumun tersi de yapılabilir.

us_rent_income |> 
  pivot_wider(
    names_from = variable,
    names_glue = "{variable}_{.value}",
    values_from = c(estimate, moe)
  )

# A tibble: 52 × 6
   GEOID NAME                 income_estimate rent_estimate income_moe rent_moe
   <chr> <chr>                          <dbl>         <dbl>      <dbl>    <dbl>
 1 01    Alabama                        24476           747        136        3
 2 02    Alaska                         32940          1200        508       13
 3 04    Arizona                        27517           972        148        4
 4 05    Arkansas                       23789           709        165        5
 5 06    California                     29454          1358        109        3
 6 08    Colorado                       32401          1125        109        5
 7 09    Connecticut                    35326          1123        195        5
 8 10    Delaware                       31560          1076        247       10
 9 11    District of Columbia           43198          1424        681       17
10 12    Florida                        25952          1077         70        3
# ℹ 42 more rows
…
Attaching package: 'dplyr'

The following objects are masked from 'package:stats':

    filter, lag

The following objects are masked from 'package:base':

    intersect, setdiff, setequal, union

us_rent_income |> 
  slice(-1) # ilk gözlem haricindeki satırlar seçilir

# A tibble: 103 × 5
   GEOID NAME       variable estimate   moe
   <chr> <chr>      <chr>       <dbl> <dbl>
 1 01    Alabama    rent          747     3
 2 02    Alaska     income      32940   508
 3 02    Alaska     rent         1200    13
 4 04    Arizona    income      27517   148
 5 04    Arizona    rent          972     4
 6 05    Arkansas   income      23789   165
 7 05    Arkansas   rent          709     5
 8 06    California income      29454   109
 9 06    California rent         1358     3
10 08    Colorado   income      32401   109
# ℹ 93 more rows

Bu durumda veri setinin geniş formata dönüştürmek istersek income değişkenleri kayıp gözlem yani NA olarak değerlendirilir.

us_rent_income |> 
  slice(-1) |> 
  pivot_wider(
    names_from = variable,
    values_from = c(estimate,moe),
    
  )

# A tibble: 52 × 6
   GEOID NAME                 estimate_rent estimate_income moe_rent moe_income
   <chr> <chr>                        <dbl>           <dbl>    <dbl>      <dbl>
 1 01    Alabama                        747              NA        3         NA
 2 02    Alaska                        1200           32940       13        508
 3 04    Arizona                        972           27517        4        148
 4 05    Arkansas                       709           23789        5        165
 5 06    California                    1358           29454        3        109
 6 08    Colorado                      1125           32401        5        109
 7 09    Connecticut                   1123           35326        5        195
 8 10    Delaware                      1076           31560       10        247
 9 11    District of Columbia          1424           43198       17        681
10 12    Florida                       1077           25952        3         70
# ℹ 42 more rows

Eğer bu şekilde oluşan gözlemlere değer atamak istersek values_fill argümanını kullanabiliriz. Örneğin bu şekilde oluşan bir durumda NA değerlere 0 değerini atanmasını varsayalım. Aşağıki kod ile bunu gerçekleştirebiliriz.

us_rent_income |> 
  slice(-1) |> 
  pivot_wider(
    names_from = variable,
    values_from = c(estimate,moe),
    values_fill = 0
  )

# A tibble: 52 × 6
   GEOID NAME                 estimate_rent estimate_income moe_rent moe_income
   <chr> <chr>                        <dbl>           <dbl>    <dbl>      <dbl>
 1 01    Alabama                        747               0        3          0
 2 02    Alaska                        1200           32940       13        508
 3 04    Arizona                        972           27517        4        148
 4 05    Arkansas                       709           23789        5        165
 5 06    California                    1358           29454        3        109
 6 08    Colorado                      1125           32401        5        109
 7 09    Connecticut                   1123           35326        5        195
 8 10    Delaware                      1076           31560       10        247
 9 11    District of Columbia          1424           43198       17        681
10 12    Florida                       1077           25952        3         70
# ℹ 42 more rows
…
