R Programlama - Veri Manipulasyonu
…
select

Tabloyu (veri çerçevesi) seçmek ve dönüştürmek için R’da dplyr paketinde bulunan select() fonksiyonu oldukça kullanışlıdır. Bu fonksiyon, belirli sütunları seçmek veya sütun adlarını değiştirmek için kullanılır. select() fonksiyonunu kullanarak veri çerçevesinde sütunları seçme ve dönüştürme işlemlerinin nasıl yapıldığına dair aşağıda örnekler mevcuttur.

Not

select() fonksiyonu ayrıca sütunları seçerken veya döndürürken bazı özel işlevler de kullanmanıza olanak tanır. Örneğin, starts_with(), ends_with(), contains() gibi işlevleri kullanarak sütun adlarının belirli bir örüntüyü karşılayanları seçebilirsiniz. Bu fonksiyon, veri manipülasyonu işlemlerinde oldukça kullanışlıdır ve veri çerçevelerini istediğiniz şekilde özelleştirmenize yardımcı olur.

# belirli sütunları seçmek
counties %>%
select(state, county, population, unemployment)

# A tibble: 3,138 × 4
   state   county   population unemployment
   <chr>   <chr>         <dbl>        <dbl>
 1 Alabama Autauga       55221          7.6
 2 Alabama Baldwin      195121          7.5
 3 Alabama Barbour       26932         17.6
 4 Alabama Bibb          22604          8.3
 5 Alabama Blount        57710          7.7
 6 Alabama Bullock       10678         18  
 7 Alabama Butler        20354         10.9
 8 Alabama Calhoun      116648         12.3
 9 Alabama Chambers      34079          8.9
10 Alabama Cherokee      26008          7.9
# ℹ 3,128 more rows

# belli aralıkta bütün sütunların seçilmesi
counties %>%
select(state, county, drive:work_at_home)

# A tibble: 3,138 × 8
   state   county   drive carpool transit  walk other_transp work_at_home
   <chr>   <chr>    <dbl>   <dbl>   <dbl> <dbl>        <dbl>        <dbl>
 1 Alabama Autauga   87.5     8.8     0.1   0.5          1.3          1.8
 2 Alabama Baldwin   84.7     8.8     0.1   1            1.4          3.9
 3 Alabama Barbour   83.8    10.9     0.4   1.8          1.5          1.6
 4 Alabama Bibb      83.2    13.5     0.5   0.6          1.5          0.7
 5 Alabama Blount    84.9    11.2     0.4   0.9          0.4          2.3
 6 Alabama Bullock   74.9    14.9     0.7   5            1.7          2.8
 7 Alabama Butler    84.5    12.4     0     0.8          0.6          1.7
 8 Alabama Calhoun   85.3     9.4     0.2   1.2          1.2          2.7
 9 Alabama Chambers  85.1    11.9     0.2   0.3          0.4          2.1
10 Alabama Cherokee  83.9    12.1     0.2   0.6          0.7          2.5
# ℹ 3,128 more rows

# belirli bir ifadeyi içeren sütunları seçmek
counties %>%
select(state, county, contains("employed"))

# A tibble: 3,138 × 4
   state   county   employed self_employed
   <chr>   <chr>       <dbl>         <dbl>
 1 Alabama Autauga     23986           5.5
 2 Alabama Baldwin     85953           5.8
 3 Alabama Barbour      8597           7.3
 4 Alabama Bibb         8294           6.7
 5 Alabama Blount      22189           4.2
 6 Alabama Bullock      3865           5.4
 7 Alabama Butler       7813           6.2
 8 Alabama Calhoun     47401           5  
 9 Alabama Chambers    13689           2.8
10 Alabama Cherokee    10155           7.9
# ℹ 3,128 more rows

# belirli bir ifade ile başyalan sütunları seçmek
counties %>%
select(state, county, starts_with("income"))

# A tibble: 3,138 × 6
   state   county   income income_err income_per_cap income_per_cap_err
   <chr>   <chr>     <dbl>      <dbl>          <dbl>              <dbl>
 1 Alabama Autauga   51281       2391          24974               1080
 2 Alabama Baldwin   50254       1263          27317                711
 3 Alabama Barbour   32964       2973          16824                798
 4 Alabama Bibb      38678       3995          18431               1618
 5 Alabama Blount    45813       3141          20532                708
 6 Alabama Bullock   31938       5884          17580               2055
 7 Alabama Butler    32229       1793          18390                714
 8 Alabama Calhoun   41703        925          21374                489
 9 Alabama Chambers  34177       2949          21071               1366
10 Alabama Cherokee  36296       1710          21811               1556
# ℹ 3,128 more rows

# belirli bir ifade ile biten sütunları seçmek
counties %>%
select(state, county, ends_with("work"))

# A tibble: 3,138 × 5
   state   county   private_work public_work family_work
   <chr>   <chr>           <dbl>       <dbl>       <dbl>
 1 Alabama Autauga          73.6        20.9         0  
 2 Alabama Baldwin          81.5        12.3         0.4
 3 Alabama Barbour          71.8        20.8         0.1
 4 Alabama Bibb             76.8        16.1         0.4
 5 Alabama Blount           82          13.5         0.4
 6 Alabama Bullock          79.5        15.1         0  
 7 Alabama Butler           77.4        16.2         0.2
 8 Alabama Calhoun          74.1        20.8         0.1
 9 Alabama Chambers         85.1        12.1         0  
10 Alabama Cherokee         73.1        18.5         0.5
# ℹ 3,128 more rows

# belirli sütunları hariç tutarak seçmek
counties %>%
select(census_id:population,-c(men:land_area))

# A tibble: 3,138 × 6
   census_id state   county   region metro    population
   <chr>     <chr>   <chr>    <chr>  <chr>         <dbl>
 1 1001      Alabama Autauga  South  Metro         55221
 2 1003      Alabama Baldwin  South  Metro        195121
 3 1005      Alabama Barbour  South  Nonmetro      26932
 4 1007      Alabama Bibb     South  Metro         22604
 5 1009      Alabama Blount   South  Metro         57710
 6 1011      Alabama Bullock  South  Nonmetro      10678
 7 1013      Alabama Butler   South  Nonmetro      20354
 8 1015      Alabama Calhoun  South  Metro        116648
 9 1017      Alabama Chambers South  Nonmetro      34079
10 1019      Alabama Cherokee South  Nonmetro      26008
# ℹ 3,128 more rows

# belirli veri tipindeki sütunları seçmek
counties %>%
select(where(is.character))

# A tibble: 3,138 × 5
   census_id state   county   region metro   
   <chr>     <chr>   <chr>    <chr>  <chr>   
 1 1001      Alabama Autauga  South  Metro   
 2 1003      Alabama Baldwin  South  Metro   
 3 1005      Alabama Barbour  South  Nonmetro
 4 1007      Alabama Bibb     South  Metro   
 5 1009      Alabama Blount   South  Metro   
 6 1011      Alabama Bullock  South  Nonmetro
 7 1013      Alabama Butler   South  Nonmetro
 8 1015      Alabama Calhoun  South  Metro   
 9 1017      Alabama Chambers South  Nonmetro
10 1019      Alabama Cherokee South  Nonmetro
# ℹ 3,128 more rows

# select ile kolon adı değiştirmek
counties %>%
select(census_id,pop = population)

# A tibble: 3,138 × 2
   census_id    pop
   <chr>      <dbl>
 1 1001       55221
 2 1003      195121
 3 1005       26932
 4 1007       22604
 5 1009       57710
 6 1011       10678
 7 1013       20354
 8 1015      116648
 9 1017       34079
10 1019       26008
# ℹ 3,128 more rows

arrange

dplyr paketinde bulunan arrange() fonksiyonu, veri çerçevesindeki satırları belirli bir sıraya göre düzenlemek için kullanılır. Bu sıralama işlemi, bir veya daha fazla sütunun değerlerine göre yapılabilir. arrange() fonksiyonu, veri analizi ve veri keşfi sırasında verilerinizi anlamak ve analiz etmek için önemli bir araçtır.

counties_selected <- counties %>%
select(state, county, population, unemployment)

# artan sıralama (ascending)
counties_selected %>%
arrange(population)

# A tibble: 3,138 × 4
   state      county    population unemployment
   <chr>      <chr>          <dbl>        <dbl>
 1 Hawaii     Kalawao           85          0  
 2 Texas      King             267          5.1
 3 Nebraska   McPherson        433          0.9
 4 Montana    Petroleum        443          6.6
 5 Nebraska   Arthur           448          4  
 6 Nebraska   Loup             548          0.7
 7 Nebraska   Blaine           551          0.7
 8 New Mexico Harding          565          6  
 9 Texas      Kenedy           565          0  
10 Colorado   San Juan         606         13.8
# ℹ 3,128 more rows

# azalan sıralama (descending)
counties_selected %>%
arrange(desc(population))

# A tibble: 3,138 × 4
   state      county      population unemployment
   <chr>      <chr>            <dbl>        <dbl>
 1 California Los Angeles   10038388         10  
 2 Illinois   Cook           5236393         10.7
 3 Texas      Harris         4356362          7.5
 4 Arizona    Maricopa       4018143          7.7
 5 California San Diego      3223096          8.7
 6 California Orange         3116069          7.6
 7 Florida    Miami-Dade     2639042         10  
 8 New York   Kings          2595259         10  
 9 Texas      Dallas         2485003          7.6
10 New York   Queens         2301139          8.6
# ℹ 3,128 more rows

# birden fazla sütun seçerek sıralama
counties_selected %>%
arrange(state,desc(population))

# A tibble: 3,138 × 4
   state   county     population unemployment
   <chr>   <chr>           <dbl>        <dbl>
 1 Alabama Jefferson      659026          9.1
 2 Alabama Mobile         414251          9.8
 3 Alabama Madison        346438          8.5
 4 Alabama Montgomery     228138          8.8
 5 Alabama Shelby         203530          5.5
 6 Alabama Tuscaloosa     200458          7.6
 7 Alabama Baldwin        195121          7.5
 8 Alabama Lee            150982          7.3
 9 Alabama Morgan         119786          9.9
10 Alabama Calhoun        116648         12.3
# ℹ 3,128 more rows

filter

dplyr paketindeki filter() fonksiyonu, veri çerçevesinde belirli bir koşulu karşılayan satırları seçmek için kullanılır. Bu fonksiyon, veri analizi sırasında verilerinizi filtrelemek ve istediğiniz verileri elde etmek için oldukça kullanışlıdır. filter() fonksiyonu, veri çerçevesindeki satırları seçerken belirli sütunlardaki değerlere dayalı koşulları uygulamanıza olanak tanır.

# sadece New York'u filtrele
counties_selected %>%
arrange(desc(population)) %>%
filter(state == "New York")

# A tibble: 62 × 4
   state    county      population unemployment
   <chr>    <chr>            <dbl>        <dbl>
 1 New York Kings          2595259         10  
 2 New York Queens         2301139          8.6
 3 New York New York       1629507          7.5
 4 New York Suffolk        1501373          6.4
 5 New York Bronx          1428357         14  
 6 New York Nassau         1354612          6.4
 7 New York Westchester     967315          7.6
 8 New York Erie            921584          7  
 9 New York Monroe          749356          7.7
10 New York Richmond        472481          6.9
# ℹ 52 more rows

# işsizlik oranı 6'dan küçük olanları filtrele
counties_selected %>%
arrange(desc(population)) %>%
filter(unemployment < 6)

# A tibble: 949 × 4
   state    county       population unemployment
   <chr>    <chr>             <dbl>        <dbl>
 1 Virginia Fairfax         1128722          4.9
 2 Utah     Salt Lake       1078958          5.8
 3 Hawaii   Honolulu         984178          5.6
 4 Texas    Collin           862215          4.9
 5 Texas    Denton           731851          5.7
 6 Texas    Fort Bend        658331          5.1
 7 Kansas   Johnson          566814          4.5
 8 Maryland Anne Arundel     555280          5.9
 9 Colorado Jefferson        552344          5.9
10 Utah     Utah             551957          5.5
# ℹ 939 more rows
…
# A tibble: 5 × 4
  state    county     population unemployment
  <chr>    <chr>           <dbl>        <dbl>
1 New York Tompkins       103855          5.9
2 New York Chemung         88267          5.4
3 New York Madison         72427          5.1
4 New York Livingston      64801          5.4
5 New York Seneca          35144          5.5

# veya kullanımı
counties_selected %>%
arrange(desc(population)) %>%
filter(state == "New York"| unemployment < 6)

# A tibble: 1,006 × 4
   state    county      population unemployment
   <chr>    <chr>            <dbl>        <dbl>
 1 New York Kings          2595259         10  
 2 New York Queens         2301139          8.6
 3 New York New York       1629507          7.5
 4 New York Suffolk        1501373          6.4
 5 New York Bronx          1428357         14  
 6 New York Nassau         1354612          6.4
 7 Virginia Fairfax        1128722          4.9
 8 Utah     Salt Lake      1078958          5.8
 9 Hawaii   Honolulu        984178          5.6
10 New York Westchester     967315          7.6
# ℹ 996 more rows

mutate

dplyr paketindeki mutate() fonksiyonu, bir veri çerçevesinde yeni sütunlar oluşturmak veya mevcut sütunları dönüştürmek için kullanılır. Bu fonksiyon, veri çerçevesindeki herhangi bir sütunu işleyerek yeni bilgiler eklemenize veya mevcut sütunları değiştirmenize olanak tanır. mutate() fonksiyonu, veri analizi sırasında verilerinizi özelleştirmek için oldukça kullanışlıdır.

# işsiz nüfus sayısına ilişkin değişken üretme
counties_selected %>%
mutate(unemployed_population = population * unemployment / 100)

# A tibble: 3,138 × 5
   state   county   population unemployment unemployed_population
   <chr>   <chr>         <dbl>        <dbl>                 <dbl>
 1 Alabama Autauga       55221          7.6                 4197.
 2 Alabama Baldwin      195121          7.5                14634.
 3 Alabama Barbour       26932         17.6                 4740.
 4 Alabama Bibb          22604          8.3                 1876.
 5 Alabama Blount        57710          7.7                 4444.
 6 Alabama Bullock       10678         18                   1922.
 7 Alabama Butler        20354         10.9                 2219.
 8 Alabama Calhoun      116648         12.3                14348.
 9 Alabama Chambers      34079          8.9                 3033.
10 Alabama Cherokee      26008          7.9                 2055.
# ℹ 3,128 more rows

# yeni sütun ekle
counties_selected %>%
mutate(unemployed_population = population * unemployment / 100) %>%
arrange(desc(unemployed_population))

# A tibble: 3,138 × 5
   state      county         population unemployment unemployed_population
   <chr>      <chr>               <dbl>        <dbl>                 <dbl>
 1 California Los Angeles      10038388         10                1003839.
 2 Illinois   Cook              5236393         10.7               560294.
 3 Texas      Harris            4356362          7.5               326727.
 4 Arizona    Maricopa          4018143          7.7               309397.
 5 California Riverside         2298032         12.9               296446.
 6 California San Diego         3223096          8.7               280409.
 7 Michigan   Wayne             1778969         14.9               265066.
 8 California San Bernardino    2094769         12.6               263941.
 9 Florida    Miami-Dade        2639042         10                 263904.
10 New York   Kings             2595259         10                 259526.
# ℹ 3,128 more rows

# var olan sütunu güncelle
counties %>%
  select(state, county, population, men,women) %>% 
mutate(population = men + women)

# A tibble: 3,138 × 5
   state   county   population   men women
   <chr>   <chr>         <dbl> <dbl> <dbl>
 1 Alabama Autauga       55221 26745 28476
 2 Alabama Baldwin      195121 95314 99807
 3 Alabama Barbour       26932 14497 12435
 4 Alabama Bibb          22604 12073 10531
 5 Alabama Blount        57710 28512 29198
 6 Alabama Bullock       10678  5660  5018
 7 Alabama Butler        20354  9502 10852
 8 Alabama Calhoun      116648 56274 60374
 9 Alabama Chambers      34079 16258 17821
10 Alabama Cherokee      26008 12975 13033
# ℹ 3,128 more rows

# birden fazla yeni değişken üretme
counties %>%
  select(state, county, population, men,women) %>% 
mutate(men_ratio = men/population*100,
       women_ratio = women/population*100)

# A tibble: 3,138 × 7
   state   county   population   men women men_ratio women_ratio
   <chr>   <chr>         <dbl> <dbl> <dbl>     <dbl>       <dbl>
 1 Alabama Autauga       55221 26745 28476      48.4        51.6
 2 Alabama Baldwin      195121 95314 99807      48.8        51.2
 3 Alabama Barbour       26932 14497 12435      53.8        46.2
 4 Alabama Bibb          22604 12073 10531      53.4        46.6
 5 Alabama Blount        57710 28512 29198      49.4        50.6
 6 Alabama Bullock       10678  5660  5018      53.0        47.0
 7 Alabama Butler        20354  9502 10852      46.7        53.3
 8 Alabama Calhoun      116648 56274 60374      48.2        51.8
 9 Alabama Chambers      34079 16258 17821      47.7        52.3
10 Alabama Cherokee      26008 12975 13033      49.9        50.1
# ℹ 3,128 more rows

# transmute sadece yeni eklenen değişkenleri gösterir

counties %>%
  select(state, county, population, men,women) %>% 
transmute(men_ratio = men/population*100,
       women_ratio = women/population*100)

# A tibble: 3,138 × 2
   men_ratio women_ratio
       <dbl>       <dbl>
 1      48.4        51.6
 2      48.8        51.2
 3      53.8        46.2
 4      53.4        46.6
 5      49.4        50.6
 6      53.0        47.0
 7      46.7        53.3
 8      48.2        51.8
 9      47.7        52.3
10      49.9        50.1
# ℹ 3,128 more rows

# mutate_at ile koşula göre birden fazla değişkene aynı fonksiyon uygulanabilir.
scale2 <- function(x, na.rm = FALSE) (x - mean(x, na.rm = na.rm)) / sd(x, na.rm)

counties_selected %>% 
  mutate_at(c("population","unemployment"),scale2)

# A tibble: 3,138 × 4
   state   county   population unemployment
   <chr>   <chr>         <dbl>        <dbl>
 1 Alabama Autauga     -0.141       -0.0563
 2 Alabama Baldwin      0.292       -0.0846
 3 Alabama Barbour     -0.228        2.78  
 4 Alabama Bibb        -0.242        0.142 
 5 Alabama Blount      -0.133       -0.0279
 6 Alabama Bullock     -0.278        2.89  
 7 Alabama Butler      -0.249        0.880 
 8 Alabama Calhoun      0.0495       1.28  
 9 Alabama Chambers    -0.206        0.313 
10 Alabama Cherokee    -0.231        0.0288
# ℹ 3,128 more rows

counties_selected %>% # birden fazla argüman kullanımı
  mutate_at(c("population","unemployment"),scale2,na.rm = TRUE)

# A tibble: 3,138 × 4
   state   county   population unemployment
   <chr>   <chr>         <dbl>        <dbl>
 1 Alabama Autauga     -0.141       -0.0563
 2 Alabama Baldwin      0.292       -0.0846
 3 Alabama Barbour     -0.228        2.78  
 4 Alabama Bibb        -0.242        0.142 
 5 Alabama Blount      -0.133       -0.0279
 6 Alabama Bullock     -0.278        2.89  
 7 Alabama Butler      -0.249        0.880 
 8 Alabama Calhoun      0.0495       1.28  
 9 Alabama Chambers    -0.206        0.313 
10 Alabama Cherokee    -0.231        0.0288
# ℹ 3,128 more rows
…
counties_selected <- counties_selected %>% 
  mutate_if(is.character,as.factor)

str(counties_selected)

spc_tbl_ [3,138 × 4] (S3: spec_tbl_df/tbl_df/tbl/data.frame)
 $ state       : Factor w/ 50 levels "Alabama","Alaska",..: 1 1 1 1 1 1 1 1 1 1 ...
 $ county      : Factor w/ 1847 levels "Abbeville","Acadia",..: 82 89 100 149 164 225 235 246 293 315 ...
 $ population  : num [1:3138] 55221 195121 26932 22604 57710 ...
 $ unemployment: num [1:3138] 7.6 7.5 17.6 8.3 7.7 18 10.9 12.3 8.9 7.9 ...

counties_selected %>% 
  mutate_if(is.numeric, scale2, na.rm = TRUE)

# A tibble: 3,138 × 4
   state   county   population unemployment
   <fct>   <fct>         <dbl>        <dbl>
 1 Alabama Autauga     -0.141       -0.0563
 2 Alabama Baldwin      0.292       -0.0846
 3 Alabama Barbour     -0.228        2.78  
 4 Alabama Bibb        -0.242        0.142 
 5 Alabama Blount      -0.133       -0.0279
 6 Alabama Bullock     -0.278        2.89  
 7 Alabama Butler      -0.249        0.880 
 8 Alabama Calhoun      0.0495       1.28  
 9 Alabama Chambers    -0.206        0.313 
10 Alabama Cherokee    -0.231        0.0288
# ℹ 3,128 more rows
…
