R Programlama - Veri Ön İşleme
…
std_z <- function(x){
  
  z=(x-mean(x))/sd(x)
  return(z)
}

mpg$hwy_std <- std_z(mpg$hwy)
mpg[,c("hwy","hwy_std")]

# A tibble: 234 × 2
     hwy hwy_std
   <int>   <dbl>
 1    29   0.934
 2    29   0.934
 3    31   1.27 
 4    30   1.10 
 5    26   0.430
 6    26   0.430
 7    27   0.598
 8    26   0.430
 9    25   0.262
10    28   0.766
# ℹ 224 more rows
…
