R Programlama - ggplot2 ile Veri Görselleştirme
…
Zaman Serisi Grafikleri

Zaman serisi grafikleri, zamanla değişen verileri görsel olarak temsil etmek için kullanılan grafiklerdir. Bu tür grafikler, belirli bir süre boyunca gözlemlenen verileri analiz etmek, eğilimleri belirlemek, dönemsel desenleri tanımak ve istatistiksel analizler yapmak için yaygın olarak kullanılır. Zaman serisi verileri genellikle sabit aralıklarla veya farklı zaman dilimlerinde toplanır. En yaygın olan türü çizgi grafikleri olmakla birlikte sütun ve alan grafikleri de zaman serilerinin görselleştirilmesinde kullanılabilmektedir.

Örnekler ggplot2 paketi ile birlikte gelen economics veri seti ile yapılacaktır.

economics

# A tibble: 574 × 6
   date         pce    pop psavert uempmed unemploy
   <date>     <dbl>  <dbl>   <dbl>   <dbl>    <dbl>
 1 1967-07-01  507. 198712    12.6     4.5     2944
 2 1967-08-01  510. 198911    12.6     4.7     2945
 3 1967-09-01  516. 199113    11.9     4.6     2958
 4 1967-10-01  512. 199311    12.9     4.9     3143
 5 1967-11-01  517. 199498    12.8     4.7     3066
 6 1967-12-01  525. 199657    11.8     4.8     3018
 7 1968-01-01  531. 199808    11.7     5.1     2878
 8 1968-02-01  534. 199920    12.3     4.5     3001
 9 1968-03-01  544. 200056    11.7     4.1     2877
10 1968-04-01  544  200208    12.3     4.6     2709
# ℹ 564 more rows
…
# çoklu zaman serisi grafiği
economics_long

# A tibble: 2,870 × 4
   date       variable value  value01
   <date>     <chr>    <dbl>    <dbl>
 1 1967-07-01 pce       507. 0       
 2 1967-08-01 pce       510. 0.000265
 3 1967-09-01 pce       516. 0.000762
 4 1967-10-01 pce       512. 0.000471
 5 1967-11-01 pce       517. 0.000916
 6 1967-12-01 pce       525. 0.00157 
 7 1968-01-01 pce       531. 0.00207 
 8 1968-02-01 pce       534. 0.00230 
 9 1968-03-01 pce       544. 0.00322 
10 1968-04-01 pce       544  0.00319 
# ℹ 2,860 more rows
…
Sütun grafikleri, aşağıdaki amaçlar için kullanılır:

Karşılaştırmalar: Farklı kategorilerin veya grupların değerlerini karşılaştırmak için kullanılır. Örneğin, farklı ülkelerin gayri safi yurtiçi hasıla (GSYİH) değerlerini karşılaştırmak için sütun grafikleri kullanılabilir.

Zaman İçi Değişim: Zaman serisi verilerini temsil etmek için kullanılabilir. Her sütun, belirli bir zaman dilimindeki değerleri gösterebilir.

Kategorik Verilerin İncelenmesi: Ürün kategorileri, şirket departmanları veya müşteri segmentleri gibi kategorik verilerin analizi için kullanılabilir.

Sütun grafikleri, verileri görsel olarak anlamak ve veriler arasındaki farkları veya eğilimleri vurgulamak için etkili bir araçtır. Aynı zamanda verilerin daha kolay anlaşılmasına yardımcı olabilir ve karar verme süreçlerine katkı sağlayabilir.

Örnekler ggplot2 paketi ile birlikte gelen diamonds veri seti ile yapılacaktır.

diamonds

# A tibble: 53,940 × 10
   carat cut       color clarity depth table price     x     y     z
   <dbl> <ord>     <ord> <ord>   <dbl> <dbl> <int> <dbl> <dbl> <dbl>
 1  0.23 Ideal     E     SI2      61.5    55   326  3.95  3.98  2.43
 2  0.21 Premium   E     SI1      59.8    61   326  3.89  3.84  2.31
 3  0.23 Good      E     VS1      56.9    65   327  4.05  4.07  2.31
 4  0.29 Premium   I     VS2      62.4    58   334  4.2   4.23  2.63
 5  0.31 Good      J     SI2      63.3    58   335  4.34  4.35  2.75
 6  0.24 Very Good J     VVS2     62.8    57   336  3.94  3.96  2.48
 7  0.24 Very Good I     VVS1     62.3    57   336  3.95  3.98  2.47
 8  0.26 Very Good H     SI1      61.9    55   337  4.07  4.11  2.53
 9  0.22 Fair      E     VS2      65.1    61   337  3.87  3.78  2.49
10  0.23 Very Good H     VS1      59.4    61   338  4     4.05  2.39
# ℹ 53,930 more rows
…
