R Programlama - 9 Doğrusal Regresyon
…
Bu sonuçlara göre \(R^2\) değeri 0.79’a yükselmiştir. Değişken sayısını artırmak model başarısını artırmış görünüyor. Ayrıca katsayıların hepsinin de anlamlı çıktığı göz ardı edilmemelidir.

Afrika kıtası haricinde, veri kümemizdeki kıtaların her biri için bir satır var. Bunun sebebi Afrika kıtası referans kıta olarak burada belirlenmesinden kaynaklanmaktadır. Yani kıtalara göre verileri yorumlarken Afirika kıtasına göre değerlendirme yapılacaktır. Örneğin Avrupa’da olmak ortalama olarak, Afrika’da olmaktan 12.51 yıl daha fazla yaşam beklentisine sahip olmak anlamına gelmektedir.

Tavsiye

Model sonuçlarının daha güzel ve temiz (tidy) bir formatta görünmesi için broom paketi kullanılabilir.

library(broom)

# gözlem düzeyinde sonuçlar
augment(model2)

# A tibble: 1,704 × 10
   lifeExp `log(gdpPercap)` continent  year .fitted .resid    .hat .sigma
     <dbl>            <dbl> <fct>     <int>   <dbl>  <dbl>   <dbl>  <dbl>
 1    28.8             6.66 Asia       1952    46.3  -17.5 0.00470   5.80
 2    30.3             6.71 Asia       1957    47.8  -17.5 0.00425   5.80
 3    32.0             6.75 Asia       1962    49.2  -17.2 0.00393   5.80
 4    34.0             6.73 Asia       1967    50.3  -16.3 0.00380   5.80
 5    36.1             6.61 Asia       1972    50.9  -14.8 0.00399   5.80
 6    38.4             6.67 Asia       1977    52.4  -14.0 0.00393   5.81
 7    39.9             6.89 Asia       1982    54.7  -14.9 0.00367   5.80
 8    40.8             6.75 Asia       1987    55.2  -14.4 0.00422   5.80
 9    41.7             6.48 Asia       1992    55.1  -13.4 0.00529   5.81
10    41.8             6.45 Asia       1997    56.2  -14.4 0.00588   5.80
# ℹ 1,694 more rows
# ℹ 2 more variables: .cooksd <dbl>, .std.resid <dbl>
…
