R Programlama - 3 select
…
3  select

Tabloyu (veri çerçevesi) seçmek ve dönüştürmek için R’da dplyr paketinde bulunan select() fonksiyonu oldukça kullanışlıdır. Bu fonksiyon, belirli sütunları seçmek veya sütun adlarını değiştirmek için kullanılır. select() fonksiyonunu kullanarak veri çerçevesinde sütunları seçme ve dönüştürme işlemlerinin nasıl yapıldığına dair aşağıda örnekler mevcuttur.

Not

select() fonksiyonu ayrıca sütunları seçerken veya döndürürken bazı özel işlevler de kullanmanıza olanak tanır. Örneğin, starts_with(), ends_with(), contains() gibi işlevleri kullanarak sütun adlarının belirli bir örüntüyü karşılayanları seçebilirsiniz. Bu fonksiyon, veri manipülasyonu işlemlerinde oldukça kullanışlıdır ve veri çerçevelerini istediğiniz şekilde özelleştirmenize yardımcı olur.

# library(dplyr)
# counties <- readRDS("datasets/counties.rds")

# belirli sütunları seçmek 
counties %>% select(state, county, population, unemployment)  

# A tibble: 3,138 × 4
   state   county   population unemployment
   <chr>   <chr>         <dbl>        <dbl>
 1 Alabama Autauga       55221          7.6
 2 Alabama Baldwin      195121          7.5
 3 Alabama Barbour       26932         17.6
 4 Alabama Bibb          22604          8.3
 5 Alabama Blount        57710          7.7
 6 Alabama Bullock       10678         18  
 7 Alabama Butler        20354         10.9
 8 Alabama Calhoun      116648         12.3
 9 Alabama Chambers      34079          8.9
10 Alabama Cherokee      26008          7.9
# ℹ 3,128 more rows

# belli aralıkta bütün sütunların seçilmesi 
counties %>% select(state, county, drive:work_at_home)  

# A tibble: 3,138 × 8
   state   county   drive carpool transit  walk other_transp work_at_home
   <chr>   <chr>    <dbl>   <dbl>   <dbl> <dbl>        <dbl>        <dbl>
 1 Alabama Autauga   87.5     8.8     0.1   0.5          1.3          1.8
 2 Alabama Baldwin   84.7     8.8     0.1   1            1.4          3.9
 3 Alabama Barbour   83.8    10.9     0.4   1.8          1.5          1.6
 4 Alabama Bibb      83.2    13.5     0.5   0.6          1.5          0.7
 5 Alabama Blount    84.9    11.2     0.4   0.9          0.4          2.3
 6 Alabama Bullock   74.9    14.9     0.7   5            1.7          2.8
 7 Alabama Butler    84.5    12.4     0     0.8          0.6          1.7
 8 Alabama Calhoun   85.3     9.4     0.2   1.2          1.2          2.7
 9 Alabama Chambers  85.1    11.9     0.2   0.3          0.4          2.1
10 Alabama Cherokee  83.9    12.1     0.2   0.6          0.7          2.5
# ℹ 3,128 more rows

# belirli bir ifadeyi içeren sütunları seçmek 
counties %>% select(state, county, contains("employed"))  

# A tibble: 3,138 × 4
   state   county   employed self_employed
   <chr>   <chr>       <dbl>         <dbl>
 1 Alabama Autauga     23986           5.5
 2 Alabama Baldwin     85953           5.8
 3 Alabama Barbour      8597           7.3
 4 Alabama Bibb         8294           6.7
 5 Alabama Blount      22189           4.2
 6 Alabama Bullock      3865           5.4
 7 Alabama Butler       7813           6.2
 8 Alabama Calhoun     47401           5  
 9 Alabama Chambers    13689           2.8
10 Alabama Cherokee    10155           7.9
# ℹ 3,128 more rows

# belirli bir ifade ile başyalan sütunları seçmek 
counties %>% select(state, county, starts_with("income"))  

# A tibble: 3,138 × 6
   state   county   income income_err income_per_cap income_per_cap_err
   <chr>   <chr>     <dbl>      <dbl>          <dbl>              <dbl>
 1 Alabama Autauga   51281       2391          24974               1080
 2 Alabama Baldwin   50254       1263          27317                711
 3 Alabama Barbour   32964       2973          16824                798
 4 Alabama Bibb      38678       3995          18431               1618
 5 Alabama Blount    45813       3141          20532                708
 6 Alabama Bullock   31938       5884          17580               2055
 7 Alabama Butler    32229       1793          18390                714
 8 Alabama Calhoun   41703        925          21374                489
 9 Alabama Chambers  34177       2949          21071               1366
10 Alabama Cherokee  36296       1710          21811               1556
# ℹ 3,128 more rows

# belirli bir ifade ile biten sütunları seçmek 
counties %>% select(state, county, ends_with("work"))  

# A tibble: 3,138 × 5
   state   county   private_work public_work family_work
   <chr>   <chr>           <dbl>       <dbl>       <dbl>
 1 Alabama Autauga          73.6        20.9         0  
 2 Alabama Baldwin          81.5        12.3         0.4
 3 Alabama Barbour          71.8        20.8         0.1
 4 Alabama Bibb             76.8        16.1         0.4
 5 Alabama Blount           82          13.5         0.4
 6 Alabama Bullock          79.5        15.1         0  
 7 Alabama Butler           77.4        16.2         0.2
 8 Alabama Calhoun          74.1        20.8         0.1
 9 Alabama Chambers         85.1        12.1         0  
10 Alabama Cherokee         73.1        18.5         0.5
# ℹ 3,128 more rows

# belirli sütunları hariç tutarak seçmek 
counties %>% select(census_id:population,-c(men:land_area))  

# A tibble: 3,138 × 6
   census_id state   county   region metro    population
   <chr>     <chr>   <chr>    <chr>  <chr>         <dbl>
 1 1001      Alabama Autauga  South  Metro         55221
 2 1003      Alabama Baldwin  South  Metro        195121
 3 1005      Alabama Barbour  South  Nonmetro      26932
 4 1007      Alabama Bibb     South  Metro         22604
 5 1009      Alabama Blount   South  Metro         57710
 6 1011      Alabama Bullock  South  Nonmetro      10678
 7 1013      Alabama Butler   South  Nonmetro      20354
 8 1015      Alabama Calhoun  South  Metro        116648
 9 1017      Alabama Chambers South  Nonmetro      34079
10 1019      Alabama Cherokee South  Nonmetro      26008
# ℹ 3,128 more rows

# belirli veri tipindeki sütunları seçmek 
counties %>% select(where(is.character))  

# A tibble: 3,138 × 5
   census_id state   county   region metro   
   <chr>     <chr>   <chr>    <chr>  <chr>   
 1 1001      Alabama Autauga  South  Metro   
 2 1003      Alabama Baldwin  South  Metro   
 3 1005      Alabama Barbour  South  Nonmetro
 4 1007      Alabama Bibb     South  Metro   
 5 1009      Alabama Blount   South  Metro   
 6 1011      Alabama Bullock  South  Nonmetro
 7 1013      Alabama Butler   South  Nonmetro
 8 1015      Alabama Calhoun  South  Metro   
 9 1017      Alabama Chambers South  Nonmetro
10 1019      Alabama Cherokee South  Nonmetro
# ℹ 3,128 more rows

# select ile kolon adı değiştirmek 
counties %>% select(census_id,pop = population)

# A tibble: 3,138 × 2
   census_id    pop
   <chr>      <dbl>
 1 1001       55221
 2 1003      195121
 3 1005       26932
 4 1007       22604
 5 1009       57710
 6 1011       10678
 7 1013       20354
 8 1015      116648
 9 1017       34079
10 1019       26008
# ℹ 3,128 more rows
…
